8846f7eaee8fb117ad06bdd830b7586c
2d20d252a479f485cdf5e171d93985bf
f9e37e83b83c47a93c2f09f66408631b
f7eb9c06fafaa23c4bcf22ba6781c1e2
31c72c210ecc03d1eae94fa496069448
4057b60b514c5402dde3d29a1845c366
6d3986e540a63647454a50e26477ef94
31fc0dc8f7dfad0e8bd7ccc3842f2ce9
3fa45a060bd2693ae4c05b601d05ca0c
2b2ac2d1c7c8fda6cea80b5fad7563aa
